-- FreeFem++ v  4.200001 (date Sat, Jun 08, 2019  6:08:22 PM git v4.2.1)
 Load: lg_fem lg_mesh lg_mesh3 eigenvalue 
    1 : // import Parameters
    2 : int npt,sign,
 *** Warning  The identifier sign hide a Global identifier  
LABEL1,LABEL2,LABEL3,LABEL4, LABELI1, LABELI2, LABELI3, LABELI4;
    3 : real  L, l,R, R0, R1,alpha;
    4 : string  Dossier,Repertoire,BasinType,adaptMesh,AdapMesh ;
    5 : Dossier="Output_Files/";
    6 : ifstream fileparam(Dossier +"Parameters.txt");
    7 : fileparam >> npt >> BasinType >> AdapMesh >>  L >>  l  >> R>> R0 >> R1 >> alpha >> sign >>LABEL1 >>  LABEL2 >> LABEL3 >> LABEL4 >> LABELI1 >>  LABELI2 >> LABELI3 >> LABELI4;
    8 : 
    9 : 
   10 : 																	//   BORDERS
   11 : 
   12 : ofstream  gxy(Dossier +"xy_echantillonnees.txt");
   13 : if ( BasinType == "Rectangular"){
   14 : 				border b1(t=0, L){x=t; y=0; label=LABEL1;
   15 : 					gxy << x << "	" << y << endl;
   16 : 													};
   17 : 				border b2(t=0, l){x=L; y=t; label=LABEL2;
   18 : 					gxy << x << "	" << y << endl;
   19 : 												 	};
   20 : 				border b3(t=0, L){x=L-t; y=l; label=LABEL3;
   21 : 					gxy << x << "	" << y << endl;
   22 : 												 	};
   23 : 				border b4(t=0, l){x=0; y=l-t; label=LABEL4;
   24 : 					gxy << x << "	" << y << endl;
   25 : 													};
   26 : 
   27 : 				mesh Th = buildmesh(b1(npt)+b2(npt)+b3(npt)+b4(npt));
   28 : 						// Adaptmesh loop
   29 : 				if (AdapMesh == "TRUE"){
   30 : 					
   31 :     					Th = adaptmesh(Th,err = 0.01, hmin=50., hmax =50.);
   32 : 					};
   33 : 				savemesh(Th, Dossier + "mesh.msh") ;
   34 : 				ofstream fh(Dossier + "maillage.dat");
   35 : 				fh.precision(14);
   36 : 				for (int i=0;i<Th.nv;i++){
   37 : 						fh<<Th(i).x<<"	"<<Th(i).y<<endl;
   38 : 						}
   39 : 		//		plot(Th,wait=1, fill=false,value=true,ps="maillage.eps", cmm= "maillage");
   40 : };
   41 : 
   42 : if ( BasinType == "Circular"){
   43 : 	// border b1(t=0, pi/2){x=(R)*cos(t); y=(R)*sin(t); label=LABEL1;
   44 : 	// 	gxy << x << "\t" << y << endl;
   45 : 	// 									 };
   46 : 	// border b2(t=pi/2, pi){x=(R)*cos(t); y=(R)*sin(t); label=LABEL2;
   47 : 	// 	gxy << x << "\t" << y << endl;
   48 : 	// 									 };
   49 : 	// border b3(t=pi, 3*pi/2){x=(R)*cos(t); y=(R)*sin(t); label=LABEL3;
   50 : 	// 	gxy << x << "\t" << y << endl;
   51 : 	// 									 };
   52 : 	// border b4(t=3*pi/2, 2*pi){x=(R)*cos(t); y=(R)*sin(t); label=LABEL4;
   53 : 	// 	gxy << x << "\t" << y << endl;
   54 : 	// 								  	};
   55 : 	border a(t=0, 2*pi){x=(R)*cos(t); y=(R)*sin(t); label=LABEL1;
   56 : 		gxy << x << "	" << y << endl;
   57 : 	 									};
   58 : 
   59 : 	mesh Th = buildmesh(a(400));
   60 : 
   61 : 
   62 : 	//mesh Th = buildmesh(b4(npt)+ b3(npt)+ b2(npt)+ b1(npt));
   63 : 				// Adaptmesh loop
   64 : 	if (AdapMesh == "TRUE"){
   65 : 													Th = adaptmesh(Th,err = 0.01, hmin=50., hmax =50.); // hmin = minimum edge size ; hmax = maximum edge size
   66 : 													};
   67 : 
   68 : 	savemesh(Th, Dossier + "mesh.msh") ;
   69 : 	ofstream fh(Dossier + "maillage.dat");
   70 : 	fh.precision(14);
   71 : 	for (int i=0;i<Th.nv;i++){
   72 : 															fh<<Th(i).x<<"	"<<Th(i).y<<endl;
   73 : 														};
   74 : 
   75 : 			//	plot(Th,wait=1, fill=false,value=true,ps="maillage.eps", cmm= "maillage");
   76 : };
   77 : 
   78 : if ( BasinType == "2circles"){
   79 : 	border a1(t=0, pi/2){x=(R1)*cos(t); y=(R1)*sin(t); label=LABEL1;
   80 : 										 };
   81 : 	border a2(t=pi/2, pi){x=(R1)*cos(t); y=(R1)*sin(t); label=LABEL2;
   82 : 	                	 };
   83 : 	border a3(t=pi, 3*pi/2){x=(R1)*cos(t); y=(R1)*sin(t); label=LABEL3;
   84 : 	             		   };
   85 : 	border a4(t=3*pi/2, 2*pi){x=(R1)*cos(t); y=(R1)*sin(t); label=LABEL4;
   86 : 											};
   87 : 									// Interior circle
   88 : 
   89 : 	border b1(t=0, pi/2){x=(R0)*cos(t); y=(R0)*sin(t); label=LABELI1;
   90 : 										 };
   91 : 	border b2(t=pi/2, pi){x=(R0)*cos(t); y=(R0)*sin(t); label=LABELI2;
   92 : 	                	 };
   93 : 	border b3(t=pi, 3*pi/2){x=(R0)*cos(t); y=(R0)*sin(t); label=LABELI3;
   94 : 	             		   };
   95 : 	border b4(t=3*pi/2, 2*pi){x=(R0)*cos(t); y=(R0)*sin(t); label=LABELI4;
   96 : 	                   };
   97 : 
   98 : 	mesh Th = buildmesh(a4(50)+a3(50)+a2(50)+a1(50)+b4(-50)+ b3(-50)+ b2(-50)+ b1(-50));
   99 : 	      // Adaptmesh loop
  100 : 	if (AdapMesh == "TRUE"){
  101 : 	                        Th = adaptmesh(Th,err = 0.01, hmin=1., hmax =2.); // hmin = minimum edge size ; hmax = maximum edge size
  102 : 	                        };
  103 : 
  104 : 	savemesh(Th,Dossier + "mesh.msh") ;
  105 : 	ofstream fh(Dossier +"maillage.dat");
  106 : 	fh.precision(14);
  107 : 	for (int i=0;i<Th.nv;i++){
  108 : 	                            fh<<Th(i).x<<"	"<<Th(i).y<<endl;
  109 : 	                          };
  110 : 	//plot(Th,wait=1, fill=false,value=true,ps="maillage.eps", cmm= "maillage");
  111 : };
  112 :  sizestack + 1024 =3484  ( 2460 )

  --  mesh:  Nb of Triangles =  27630, Nb of Vertices 14016
  number of required edges : 0
times: compile 0.011s, execution 0.43s,  mpirank:0
 ######## We forget of deleting   -3 Nb pointer,   0Bytes  ,  mpirank 0, memory leak =0
 CodeAlloc : nb ptr  3727,  size :437648 mpirank: 0
Ok: Normal End
